Session 2: Homework 1
…
movies %>%
 distinct(title)

## # A tibble: 2,907 x 1
##    title                                    
##    <chr>                                    
##  1 Avatar                                   
##  2 Titanic                                  
##  3 Jurassic World                           
##  4 The Avengers                             
##  5 The Dark Knight                          
##  6 Star Wars: Episode I - The Phantom Menace
##  7 Star Wars: Episode IV - A New Hope       
##  8 Avengers: Age of Ultron                  
##  9 The Dark Knight Rises                    
## 10 Shrek 2                                  
## # ... with 2,897 more rows
…
Calculate a variable return_on_budget which shows how many $ did a movie make at the box office for each $ of its budget. Ranked genres by this return_on_budget in descending order

return_on_budget <- movies %>% 
  summarise(title, return = gross/budget) %>% 
  arrange(desc(return))
return_on_budget

## # A tibble: 2,961 x 2
##    title                        return
##    <chr>                         <dbl>
##  1 Paranormal Activity           7194.
##  2 Tarnation                     2716.
##  3 The Blair Witch Project       2342.
##  4 The Brothers McMullen          410.
##  5 The Texas Chain Saw Massacre   369.
##  6 The Texas Chain Saw Massacre   369.
##  7 El Mariachi                    292.
##  8 The Gallows                    228.
##  9 Super Size Me                  177.
## 10 Halloween                      157.
## # ... with 2,951 more rows
…
hr_female <- hr_dataset %>% filter (Gender=="Female")
hr_female

## # A tibble: 588 x 35
##      Age Attrition BusinessTravel DailyRate Department DistanceFromHome
##    <dbl> <chr>     <chr>              <dbl> <chr>                 <dbl>
##  1    41 Yes       Travel_Rarely       1102 Sales                     1
##  2    33 No        Travel_Freque~      1392 Research ~                3
##  3    59 No        Travel_Rarely       1324 Research ~                3
##  4    29 No        Travel_Rarely        153 Research ~               15
##  5    29 No        Travel_Rarely       1389 Research ~               21
##  6    53 No        Travel_Rarely       1219 Sales                     2
##  7    24 No        Non-Travel           673 Research ~               11
##  8    34 No        Travel_Rarely        419 Research ~                7
##  9    53 No        Travel_Rarely       1282 Research ~                5
## 10    32 Yes       Travel_Freque~      1125 Research ~               16
## # ... with 578 more rows, and 29 more variables: Education <dbl>,
## #   EducationField <chr>, EmployeeCount <dbl>, EmployeeNumber <dbl>,
## #   EnvironmentSatisfaction <dbl>, Gender <chr>, HourlyRate <dbl>,
## #   JobInvolvement <dbl>, JobLevel <dbl>, JobRole <chr>, JobSatisfaction <dbl>,
## #   MaritalStatus <chr>, MonthlyIncome <dbl>, MonthlyRate <dbl>,
## #   NumCompaniesWorked <dbl>, Over18 <chr>, OverTime <chr>,
## #   PercentSalaryHike <dbl>, PerformanceRating <dbl>,
## #   RelationshipSatisfaction <dbl>, StandardHours <dbl>,
## #   StockOptionLevel <dbl>, TotalWorkingYears <dbl>,
…
