…
Intro:

The Data

gapminder

## # A tibble: 1,704 x 6
##    country     continent  year lifeExp      pop gdpPercap
##    <fct>       <fct>     <int>   <dbl>    <int>     <dbl>
##  1 Afghanistan Asia       1952    28.8  8425333      779.
##  2 Afghanistan Asia       1957    30.3  9240934      821.
##  3 Afghanistan Asia       1962    32.0 10267083      853.
##  4 Afghanistan Asia       1967    34.0 11537966      836.
##  5 Afghanistan Asia       1972    36.1 13079460      740.
##  6 Afghanistan Asia       1977    38.4 14880372      786.
##  7 Afghanistan Asia       1982    39.9 12881816      978.
##  8 Afghanistan Asia       1987    40.8 13867957      852.
##  9 Afghanistan Asia       1992    41.7 16317921      649.
## 10 Afghanistan Asia       1997    41.8 22227415      635.
## # ... with 1,694 more rows
…
I grouped the weather data by year and found the average delta for each year. We can clearly see that the temperatures have been increasing from the start of last century. Also quick note on the data, the expected temperatures are actually calculated from the temperatures around 1950-1980, this is why we see a the curve flattening around that time.

Now the two datasets are ready to join. And I will also add a tot_gdp column which will simply be gdpPercap times the pop.

# joining the two datasets
df_joined <- gapminder %>%
  left_join( weather  , by = 'year') %>%
##addinng  a total GDP colum 
  mutate(tot_gdp = gdpPercap*pop)

df_joined

## # A tibble: 1,704 x 9
##    country continent  year lifeExp    pop gdpPercap mean_delta median_delta
##    <fct>   <fct>     <dbl>   <dbl>  <int>     <dbl>      <dbl>        <dbl>
##  1 Afghan~ Asia       1952    28.8 8.43e6      779.     0.0508        0.135
##  2 Afghan~ Asia       1957    30.3 9.24e6      821.     0.0425        0.095
##  3 Afghan~ Asia       1962    32.0 1.03e7      853.     0.158         0.145
##  4 Afghan~ Asia       1967    34.0 1.15e7      836.     0.0317        0.055
##  5 Afghan~ Asia       1972    36.1 1.31e7      740.    -0.182        -0.11 
##  6 Afghan~ Asia       1977    38.4 1.49e7      786.     0.112         0.12 
##  7 Afghan~ Asia       1982    39.9 1.29e7      978.     0.0542        0.05 
##  8 Afghan~ Asia       1987    40.8 1.39e7      852.     0.26          0.25 
##  9 Afghan~ Asia       1992    41.7 1.63e7      649.     0.123         0.07 
## 10 Afghan~ Asia       1997    41.8 2.22e7      635.     0.532         0.525
## # ... with 1,694 more rows, and 1 more variable: tot_gdp <dbl>
…
